%YAML 1.1
%TAG !u! tag:unity3d.com,2011:
--- !u!1045 &1
EditorBuildSettings:
  m_ObjectHideFlags: 0
  serializedVersion: 2
  m_Scenes:
  - enabled: 1
    path: Assets/Scenes/Final Scenes/Menu.unity
    guid: fc8bb59d7a0e3e944bb9406fc3aa1a90
  - enabled: 1
    path: Assets/Scenes/Final Scenes/Zones/Zone1-2.unity
    guid: 84361989b018af74694167622494e8ee
  - enabled: 1
    path: Assets/Scenes/Final Scenes/Zones/Zone3-4.unity
    guid: 34e2b0782a504f9449aebbc9cb4d8726
  - enabled: 1
    path: Assets/Scenes/Final Scenes/Zones/Zone5.unity
    guid: da1002a7ce5631d4d9d00ae99f356f1e
  - enabled: 1
    path: Assets/Scenes/Final Scenes/Zones/Zone6-7.unity
    guid: 807fc6c9691858d42bcd2243ef0e4d55
  - enabled: 1
    path: Assets/Scenes/Final Scenes/Zones/Zone8.unity
    guid: 0c58fb6f1b8e8554c9143de4c191b472
  - enabled: 1
    path: Assets/Scenes/Final Scenes/FinalBoss.unity
    guid: e0897b20d5e3d634daefa5795bf27635
  m_configObjects: {}
