%YAML 1.1
%TAG !u! tag:unity3d.com,2011:
--- !u!114 &11400000
MonoBehaviour:
  m_ObjectHideFlags: 0
  m_CorrespondingSourceObject: {fileID: 0}
  m_PrefabInstance: {fileID: 0}
  m_PrefabAsset: {fileID: 0}
  m_GameObject: {fileID: 0}
  m_Enabled: 1
  m_EditorHideFlags: 0
  m_Script: {fileID: 11500000, guid: 6112230d2eba76745bf9c49e8591626d, type: 3}
  m_Name: 4D6AFFE9-8E11-41E6-B1BF-560B63623420
  m_EditorClassIdentifier: 
  objectName: LavaAmbience
  id: 3943171411
  guid: 4D6AFFE9-8E11-41E6-B1BF-560B63623420
