%YAML 1.1
%TAG !u! tag:unity3d.com,2011:
--- !u!114 &11400000
MonoBehaviour:
  m_ObjectHideFlags: 0
  m_CorrespondingSourceObject: {fileID: 0}
  m_PrefabInstance: {fileID: 0}
  m_PrefabAsset: {fileID: 0}
  m_GameObject: {fileID: 0}
  m_Enabled: 1
  m_EditorHideFlags: 0
  m_Script: {fileID: 11500000, guid: 935899b62f48ae5498594680ed17d133, type: 3}
  m_Name: Bard Barks Database
  m_EditorClassIdentifier: 
  version: 
  author: 
  description: 
  globalUserScript: 
  emphasisSettings:
  - color: {r: 1, g: 1, b: 1, a: 1}
    bold: 0
    italic: 0
    underline: 0
  - color: {r: 1, g: 0, b: 0, a: 1}
    bold: 0
    italic: 0
    underline: 0
  - color: {r: 0, g: 1, b: 0, a: 1}
    bold: 0
    italic: 0
    underline: 0
  - color: {r: 0, g: 0, b: 1, a: 1}
    bold: 0
    italic: 0
    underline: 0
  baseID: 1
  actors:
  - id: 1
    fields:
    - title: Name
      value: Player
      type: 0
      typeString: 
    - title: Pictures
      value: '[]'
      type: 3
      typeString: CustomFieldType_Files
    - title: Description
      value: 
      type: 0
      typeString: 
    - title: IsPlayer
      value: True
      type: 2
      typeString: CustomFieldType_Boolean
    portrait: {fileID: 0}
    spritePortrait: {fileID: 0}
    alternatePortraits: []
    spritePortraits: []
  - id: 2
    fields:
    - title: Name
      value: NPC
      type: 0
      typeString: 
    - title: Pictures
      value: '[]'
      type: 3
      typeString: CustomFieldType_Files
    - title: Description
      value: 
      type: 0
      typeString: 
    - title: IsPlayer
      value: False
      type: 2
      typeString: CustomFieldType_Boolean
    portrait: {fileID: 0}
    spritePortrait: {fileID: 0}
    alternatePortraits: []
    spritePortraits: []
  items: []
  locations: []
  variables:
  - id: 1
    fields:
    - title: Name
      value: IsRespawning
      type: 0
      typeString: 
    - title: Initial Value
      value: False
      type: 2
      typeString: CustomFieldType_Boolean
    - title: Description
      value: 
      type: 0
      typeString: 
  - id: 2
    fields:
    - title: Name
      value: New Variable 2
      type: 0
      typeString: 
    - title: Initial Value
      value: False
      type: 2
      typeString: CustomFieldType_Boolean
    - title: Description
      value: 
      type: 0
      typeString: 
  conversations:
  - id: 1
    fields:
    - title: Title
      value: Barks
      type: 0
      typeString: 
    - title: Description
      value: 
      type: 0
      typeString: 
    - title: Actor
      value: 1
      type: 5
      typeString: CustomFieldType_Actor
    - title: Conversant
      value: 2
      type: 5
      typeString: CustomFieldType_Actor
    overrideSettings:
      useOverrides: 0
      overrideSubtitleSettings: 0
      showNPCSubtitlesDuringLine: 1
      showNPCSubtitlesWithResponses: 1
      showPCSubtitlesDuringLine: 0
      skipPCSubtitleAfterResponseMenu: 0
      subtitleCharsPerSecond: 30
      minSubtitleSeconds: 2
      continueButton: 0
      overrideSequenceSettings: 0
      defaultSequence: 
      defaultPlayerSequence: 
      defaultResponseMenuSequence: 
      overrideInputSettings: 0
      alwaysForceResponseMenu: 1
      includeInvalidEntries: 0
      responseTimeout: 0
      cancelSubtitle:
        key: 27
        buttonName: 
      cancelConversation:
        key: 27
        buttonName: 
    nodeColor: 
    dialogueEntries:
    - id: 0
      fields:
      - title: Title
        value: START
        type: 0
        typeString: 
      - title: Description
        value: 
        type: 0
        typeString: 
      - title: Actor
        value: 1
        type: 5
        typeString: CustomFieldType_Actor
      - title: Conversant
        value: 2
        type: 5
        typeString: CustomFieldType_Actor
      - title: Menu Text
        value: 
        type: 0
        typeString: 
      - title: Dialogue Text
        value: 
        type: 0
        typeString: 
      - title: Sequence
        value: None()
        type: 0
        typeString: 
      conversationID: 1
      isRoot: 0
      isGroup: 0
      nodeColor: 
      delaySimStatus: 0
      falseConditionAction: Block
      conditionPriority: 2
      outgoingLinks:
      - originConversationID: 1
        originDialogueID: 0
        destinationConversationID: 1
        destinationDialogueID: 1
        isConnector: 0
        priority: 2
      - originConversationID: 1
        originDialogueID: 0
        destinationConversationID: 1
        destinationDialogueID: 2
        isConnector: 0
        priority: 2
      - originConversationID: 1
        originDialogueID: 0
        destinationConversationID: 1
        destinationDialogueID: 3
        isConnector: 0
        priority: 2
      - originConversationID: 1
        originDialogueID: 0
        destinationConversationID: 1
        destinationDialogueID: 4
        isConnector: 0
        priority: 2
      - originConversationID: 1
        originDialogueID: 0
        destinationConversationID: 1
        destinationDialogueID: 5
        isConnector: 0
        priority: 2
      - originConversationID: 1
        originDialogueID: 0
        destinationConversationID: 1
        destinationDialogueID: 6
        isConnector: 0
        priority: 2
      - originConversationID: 1
        originDialogueID: 0
        destinationConversationID: 1
        destinationDialogueID: 7
        isConnector: 0
        priority: 2
      - originConversationID: 1
        originDialogueID: 0
        destinationConversationID: 1
        destinationDialogueID: 8
        isConnector: 0
        priority: 2
      - originConversationID: 1
        originDialogueID: 0
        destinationConversationID: 1
        destinationDialogueID: 9
        isConnector: 0
        priority: 2
      - originConversationID: 1
        originDialogueID: 0
        destinationConversationID: 1
        destinationDialogueID: 10
        isConnector: 0
        priority: 2
      - originConversationID: 1
        originDialogueID: 0
        destinationConversationID: 1
        destinationDialogueID: 11
        isConnector: 0
        priority: 2
      - originConversationID: 1
        originDialogueID: 0
        destinationConversationID: 1
        destinationDialogueID: 12
        isConnector: 0
        priority: 2
      - originConversationID: 1
        originDialogueID: 0
        destinationConversationID: 1
        destinationDialogueID: 13
        isConnector: 0
        priority: 2
      - originConversationID: 1
        originDialogueID: 0
        destinationConversationID: 1
        destinationDialogueID: 14
        isConnector: 0
        priority: 2
      - originConversationID: 1
        originDialogueID: 0
        destinationConversationID: 1
        destinationDialogueID: 15
        isConnector: 0
        priority: 2
      - originConversationID: 1
        originDialogueID: 0
        destinationConversationID: 1
        destinationDialogueID: 16
        isConnector: 0
        priority: 2
      - originConversationID: 1
        originDialogueID: 0
        destinationConversationID: 1
        destinationDialogueID: 17
        isConnector: 0
        priority: 2
      - originConversationID: 1
        originDialogueID: 0
        destinationConversationID: 1
        destinationDialogueID: 18
        isConnector: 0
        priority: 2
      - originConversationID: 1
        originDialogueID: 0
        destinationConversationID: 1
        destinationDialogueID: 19
        isConnector: 0
        priority: 2
      - originConversationID: 1
        originDialogueID: 0
        destinationConversationID: 1
        destinationDialogueID: 20
        isConnector: 0
        priority: 2
      - originConversationID: 1
        originDialogueID: 0
        destinationConversationID: 1
        destinationDialogueID: 21
        isConnector: 0
        priority: 2
      - originConversationID: 1
        originDialogueID: 0
        destinationConversationID: 1
        destinationDialogueID: 22
        isConnector: 0
        priority: 2
      conditionsString: 
      userScript: 
      onExecute:
        m_PersistentCalls:
          m_Calls: []
      canvasRect:
        serializedVersion: 2
        x: 292.43246
        y: 647.3021
        width: 160
        height: 30
    - id: 1
      fields:
      - title: Title
        value: 1
        type: 0
        typeString: 
      - title: Description
        value: 
        type: 0
        typeString: 
      - title: Actor
        value: 2
        type: 5
        typeString: CustomFieldType_Actor
      - title: Conversant
        value: 1
        type: 5
        typeString: CustomFieldType_Actor
      - title: Menu Text
        value: 
        type: 0
        typeString: 
      - title: Dialogue Text
        value: Ah, I was wondering when you'd pop up
        type: 0
        typeString: 
      - title: Sequence
        value: 
        type: 0
        typeString: 
      conversationID: 1
      isRoot: 0
      isGroup: 0
      nodeColor: 
      delaySimStatus: 0
      falseConditionAction: Block
      conditionPriority: 2
      outgoingLinks: []
      conditionsString: 
      userScript: 
      onExecute:
        m_PersistentCalls:
          m_Calls: []
      canvasRect:
        serializedVersion: 2
        x: 586.23865
        y: 119.005066
        width: 160
        height: 30
    - id: 2
      fields:
      - title: Title
        value: 2
        type: 0
        typeString: 
      - title: Description
        value: 
        type: 0
        typeString: 
      - title: Actor
        value: 2
        type: 5
        typeString: CustomFieldType_Actor
      - title: Conversant
        value: 1
        type: 5
        typeString: CustomFieldType_Actor
      - title: Menu Text
        value: 
        type: 0
        typeString: 
      - title: Dialogue Text
        value: Find anything out good out there?
        type: 0
        typeString: 
      - title: Sequence
        value: 
        type: 0
        typeString: 
      conversationID: 1
      isRoot: 0
      isGroup: 0
      nodeColor: 
      delaySimStatus: 0
      falseConditionAction: Block
      conditionPriority: 2
      outgoingLinks: []
      conditionsString: 
      userScript: 
      onExecute:
        m_PersistentCalls:
          m_Calls: []
      canvasRect:
        serializedVersion: 2
        x: 584.5962
        y: 165.35579
        width: 160
        height: 30
    - id: 3
      fields:
      - title: Title
        value: 3
        type: 0
        typeString: 
      - title: Description
        value: 
        type: 0
        typeString: 
      - title: Actor
        value: 2
        type: 5
        typeString: CustomFieldType_Actor
      - title: Conversant
        value: 1
        type: 5
        typeString: CustomFieldType_Actor
      - title: Menu Text
        value: 
        type: 0
        typeString: 
      - title: Dialogue Text
        value: Fancy seeing you here
        type: 0
        typeString: 
      - title: Sequence
        value: 
        type: 0
        typeString: 
      conversationID: 1
      isRoot: 0
      isGroup: 0
      nodeColor: 
      delaySimStatus: 0
      falseConditionAction: Block
      conditionPriority: 2
      outgoingLinks: []
      conditionsString: 
      userScript: 
      onExecute:
        m_PersistentCalls:
          m_Calls: []
      canvasRect:
        serializedVersion: 2
        x: 586.2005
        y: 212.04678
        width: 160
        height: 30
    - id: 4
      fields:
      - title: Title
        value: 
        type: 0
        typeString: 
      - title: Description
        value: 
        type: 0
        typeString: 
      - title: Actor
        value: 2
        type: 5
        typeString: CustomFieldType_Actor
      - title: Conversant
        value: 1
        type: 5
        typeString: CustomFieldType_Actor
      - title: Menu Text
        value: 
        type: 0
        typeString: 
      - title: Dialogue Text
        value: I'm not quite sure how to put that last bit into words
        type: 0
        typeString: 
      - title: Sequence
        value: 
        type: 0
        typeString: 
      conversationID: 1
      isRoot: 0
      isGroup: 0
      nodeColor: 
      delaySimStatus: 0
      falseConditionAction: Block
      conditionPriority: 2
      outgoingLinks: []
      conditionsString: 
      userScript: 
      onExecute:
        m_PersistentCalls:
          m_Calls: []
      canvasRect:
        serializedVersion: 2
        x: 557.7297
        y: 832.79175
        width: 160
        height: 30
    - id: 5
      fields:
      - title: Title
        value: 
        type: 0
        typeString: 
      - title: Description
        value: 
        type: 0
        typeString: 
      - title: Actor
        value: 2
        type: 5
        typeString: CustomFieldType_Actor
      - title: Conversant
        value: 1
        type: 5
        typeString: CustomFieldType_Actor
      - title: Menu Text
        value: 
        type: 0
        typeString: 
      - title: Dialogue Text
        value: If it isn't the muse herself
        type: 0
        typeString: 
      - title: Sequence
        value: 
        type: 0
        typeString: 
      conversationID: 1
      isRoot: 0
      isGroup: 0
      nodeColor: 
      delaySimStatus: 0
      falseConditionAction: Block
      conditionPriority: 2
      outgoingLinks: []
      conditionsString: 
      userScript: 
      onExecute:
        m_PersistentCalls:
          m_Calls: []
      canvasRect:
        serializedVersion: 2
        x: 562.2751
        y: 775.9736
        width: 160
        height: 30
    - id: 6
      fields:
      - title: Title
        value: 
        type: 0
        typeString: 
      - title: Description
        value: 
        type: 0
        typeString: 
      - title: Actor
        value: 2
        type: 5
        typeString: CustomFieldType_Actor
      - title: Conversant
        value: 1
        type: 5
        typeString: CustomFieldType_Actor
      - title: Menu Text
        value: 
        type: 0
        typeString: 
      - title: Dialogue Text
        value: What do you think, rhyming or no?
        type: 0
        typeString: 
      - title: Sequence
        value: 
        type: 0
        typeString: 
      conversationID: 1
      isRoot: 0
      isGroup: 0
      nodeColor: 
      delaySimStatus: 0
      falseConditionAction: Block
      conditionPriority: 2
      outgoingLinks: []
      conditionsString: 
      userScript: 
      onExecute:
        m_PersistentCalls:
          m_Calls: []
      canvasRect:
        serializedVersion: 2
        x: 565.6842
        y: 722.5646
        width: 160
        height: 30
    - id: 7
      fields:
      - title: Title
        value: 
        type: 0
        typeString: 
      - title: Description
        value: 
        type: 0
        typeString: 
      - title: Actor
        value: 2
        type: 5
        typeString: CustomFieldType_Actor
      - title: Conversant
        value: 1
        type: 5
        typeString: CustomFieldType_Actor
      - title: Menu Text
        value: 
        type: 0
        typeString: 
      - title: Dialogue Text
        value: I think I've got the next verse nearly done
        type: 0
        typeString: 
      - title: Sequence
        value: 
        type: 0
        typeString: 
      conversationID: 1
      isRoot: 0
      isGroup: 0
      nodeColor: 
      delaySimStatus: 0
      falseConditionAction: Block
      conditionPriority: 2
      outgoingLinks: []
      conditionsString: 
      userScript: 
      onExecute:
        m_PersistentCalls:
          m_Calls: []
      canvasRect:
        serializedVersion: 2
        x: 565.6842
        y: 671.4281
        width: 160
        height: 30
    - id: 8
      fields:
      - title: Title
        value: 
        type: 0
        typeString: 
      - title: Description
        value: 
        type: 0
        typeString: 
      - title: Actor
        value: 2
        type: 5
        typeString: CustomFieldType_Actor
      - title: Conversant
        value: 1
        type: 5
        typeString: CustomFieldType_Actor
      - title: Menu Text
        value: 
        type: 0
        typeString: 
      - title: Dialogue Text
        value: One more quest for you, one more verse for me
        type: 0
        typeString: 
      - title: Sequence
        value: 
        type: 0
        typeString: 
      conversationID: 1
      isRoot: 0
      isGroup: 0
      nodeColor: 
      delaySimStatus: 0
      falseConditionAction: Block
      conditionPriority: 2
      outgoingLinks: []
      conditionsString: 
      userScript: 
      onExecute:
        m_PersistentCalls:
          m_Calls: []
      canvasRect:
        serializedVersion: 2
        x: 571.36597
        y: 616.8827
        width: 160
        height: 30
    - id: 9
      fields:
      - title: Title
        value: 
        type: 0
        typeString: 
      - title: Description
        value: 
        type: 0
        typeString: 
      - title: Actor
        value: 2
        type: 5
        typeString: CustomFieldType_Actor
      - title: Conversant
        value: 1
        type: 5
        typeString: CustomFieldType_Actor
      - title: Menu Text
        value: 
        type: 0
        typeString: 
      - title: Dialogue Text
        value: ..... Sorry did you say something?
        type: 0
        typeString: 
      - title: Sequence
        value: 
        type: 0
        typeString: 
      conversationID: 1
      isRoot: 0
      isGroup: 0
      nodeColor: 
      delaySimStatus: 0
      falseConditionAction: Block
      conditionPriority: 2
      outgoingLinks: []
      conditionsString: 
      userScript: 
      onExecute:
        m_PersistentCalls:
          m_Calls: []
      canvasRect:
        serializedVersion: 2
        x: 570.2296
        y: 565.74634
        width: 160
        height: 30
    - id: 10
      fields:
      - title: Title
        value: 
        type: 0
        typeString: 
      - title: Description
        value: 
        type: 0
        typeString: 
      - title: Actor
        value: 2
        type: 5
        typeString: CustomFieldType_Actor
      - title: Conversant
        value: 1
        type: 5
        typeString: CustomFieldType_Actor
      - title: Menu Text
        value: 
        type: 0
        typeString: 
      - title: Dialogue Text
        value: Hey again Winnie
        type: 0
        typeString: 
      - title: Sequence
        value: 
        type: 0
        typeString: 
      conversationID: 1
      isRoot: 0
      isGroup: 0
      nodeColor: 
      delaySimStatus: 0
      falseConditionAction: Block
      conditionPriority: 2
      outgoingLinks: []
      conditionsString: 
      userScript: 
      onExecute:
        m_PersistentCalls:
          m_Calls: []
      canvasRect:
        serializedVersion: 2
        x: 572.7597
        y: 514.8888
        width: 160
        height: 30
    - id: 11
      fields:
      - title: Title
        value: 
        type: 0
        typeString: 
      - title: Description
        value: 
        type: 0
        typeString: 
      - title: Actor
        value: 2
        type: 5
        typeString: CustomFieldType_Actor
      - title: Conversant
        value: 1
        type: 5
        typeString: CustomFieldType_Actor
      - title: Menu Text
        value: 
        type: 0
        typeString: 
      - title: Dialogue Text
        value: Didn't forget about us did you?
        type: 0
        typeString: 
      - title: Sequence
        value: 
        type: 0
        typeString: 
      conversationID: 1
      isRoot: 0
      isGroup: 0
      nodeColor: 
      delaySimStatus: 0
      falseConditionAction: Block
      conditionPriority: 2
      outgoingLinks: []
      conditionsString: 
      userScript: 
      onExecute:
        m_PersistentCalls:
          m_Calls: []
      canvasRect:
        serializedVersion: 2
        x: 574.6465
        y: 458.28494
        width: 160
        height: 30
    - id: 12
      fields:
      - title: Title
        value: 
        type: 0
        typeString: 
      - title: Description
        value: 
        type: 0
        typeString: 
      - title: Actor
        value: 2
        type: 5
        typeString: CustomFieldType_Actor
      - title: Conversant
        value: 1
        type: 5
        typeString: CustomFieldType_Actor
      - title: Menu Text
        value: 
        type: 0
        typeString: 
      - title: Dialogue Text
        value: Ah, good to see you're still kicking
        type: 0
        typeString: 
      - title: Sequence
        value: 
        type: 0
        typeString: 
      conversationID: 1
      isRoot: 0
      isGroup: 0
      nodeColor: 
      delaySimStatus: 0
      falseConditionAction: Block
      conditionPriority: 2
      outgoingLinks: []
      conditionsString: 
      userScript: 
      onExecute:
        m_PersistentCalls:
          m_Calls: []
      canvasRect:
        serializedVersion: 2
        x: 577.4766
        y: 407.34158
        width: 160
        height: 30
    - id: 13
      fields:
      - title: Title
        value: 
        type: 0
        typeString: 
      - title: Description
        value: 
        type: 0
        typeString: 
      - title: Actor
        value: 2
        type: 5
        typeString: CustomFieldType_Actor
      - title: Conversant
        value: 1
        type: 5
        typeString: CustomFieldType_Actor
      - title: Menu Text
        value: 
        type: 0
        typeString: 
      - title: Dialogue Text
        value: Ah, welcome back Winnie
        type: 0
        typeString: 
      - title: Sequence
        value: 
        type: 0
        typeString: 
      conversationID: 1
      isRoot: 0
      isGroup: 0
      nodeColor: 
      delaySimStatus: 0
      falseConditionAction: Block
      conditionPriority: 2
      outgoingLinks: []
      conditionsString: 
      userScript: 
      onExecute:
        m_PersistentCalls:
          m_Calls: []
      canvasRect:
        serializedVersion: 2
        x: 583.137
        y: 354.51138
        width: 160
        height: 30
    - id: 14
      fields:
      - title: Title
        value: 
        type: 0
        typeString: 
      - title: Description
        value: 
        type: 0
        typeString: 
      - title: Actor
        value: 2
        type: 5
        typeString: CustomFieldType_Actor
      - title: Conversant
        value: 1
        type: 5
        typeString: CustomFieldType_Actor
      - title: Menu Text
        value: 
        type: 0
        typeString: 
      - title: Dialogue Text
        value: Back so soon?
        type: 0
        typeString: 
      - title: Sequence
        value: 
        type: 0
        typeString: 
      conversationID: 1
      isRoot: 0
      isGroup: 0
      nodeColor: 
      delaySimStatus: 0
      falseConditionAction: Block
      conditionPriority: 2
      outgoingLinks: []
      conditionsString: 
      userScript: 
      onExecute:
        m_PersistentCalls:
          m_Calls: []
      canvasRect:
        serializedVersion: 2
        x: 581.2503
        y: 307.34158
        width: 160
        height: 30
    - id: 15
      fields:
      - title: Title
        value: 
        type: 0
        typeString: 
      - title: Description
        value: 
        type: 0
        typeString: 
      - title: Actor
        value: 2
        type: 5
        typeString: CustomFieldType_Actor
      - title: Conversant
        value: 1
        type: 5
        typeString: CustomFieldType_Actor
      - title: Menu Text
        value: 
        type: 0
        typeString: 
      - title: Dialogue Text
        value: Back again?
        type: 0
        typeString: 
      - title: Sequence
        value: 
        type: 0
        typeString: 
      conversationID: 1
      isRoot: 0
      isGroup: 0
      nodeColor: 
      delaySimStatus: 0
      falseConditionAction: Block
      conditionPriority: 2
      outgoingLinks: []
      conditionsString: 
      userScript: 
      onExecute:
        m_PersistentCalls:
          m_Calls: []
      canvasRect:
        serializedVersion: 2
        x: 584.0805
        y: 259.22836
        width: 160
        height: 30
    - id: 16
      fields:
      - title: Title
        value: 
        type: 0
        typeString: 
      - title: Description
        value: 
        type: 0
        typeString: 
      - title: Actor
        value: 2
        type: 5
        typeString: CustomFieldType_Actor
      - title: Conversant
        value: 1
        type: 5
        typeString: CustomFieldType_Actor
      - title: Menu Text
        value: 
        type: 0
        typeString: 
      - title: Dialogue Text
        value: did... did anyone else remember us?
        type: 0
        typeString: 
      - title: Sequence
        value: 
        type: 0
        typeString: 
      conversationID: 1
      isRoot: 0
      isGroup: 0
      nodeColor: 
      delaySimStatus: 0
      falseConditionAction: Block
      conditionPriority: 2
      outgoingLinks: []
      conditionsString: 
      userScript: 
      onExecute:
        m_PersistentCalls:
          m_Calls: []
      canvasRect:
        serializedVersion: 2
        x: 543.1786
        y: 1115.2124
        width: 160
        height: 30
    - id: 17
      fields:
      - title: Title
        value: 
        type: 0
        typeString: 
      - title: Description
        value: 
        type: 0
        typeString: 
      - title: Actor
        value: 2
        type: 5
        typeString: CustomFieldType_Actor
      - title: Conversant
        value: 1
        type: 5
        typeString: CustomFieldType_Actor
      - title: Menu Text
        value: 
        type: 0
        typeString: 
      - title: Dialogue Text
        value: Just... Be careful, I cant lose you again
        type: 0
        typeString: 
      - title: Sequence
        value: 
        type: 0
        typeString: 
      conversationID: 1
      isRoot: 0
      isGroup: 0
      nodeColor: 
      delaySimStatus: 0
      falseConditionAction: Block
      conditionPriority: 2
      outgoingLinks: []
      conditionsString: 
      userScript: 
      onExecute:
        m_PersistentCalls:
          m_Calls: []
      canvasRect:
        serializedVersion: 2
        x: 553.6264
        y: 1051.0333
        width: 160
        height: 30
    - id: 18
      fields:
      - title: Title
        value: 
        type: 0
        typeString: 
      - title: Description
        value: 
        type: 0
        typeString: 
      - title: Actor
        value: 2
        type: 5
        typeString: CustomFieldType_Actor
      - title: Conversant
        value: 1
        type: 5
        typeString: CustomFieldType_Actor
      - title: Menu Text
        value: 
        type: 0
        typeString: 
      - title: Dialogue Text
        value: You had me worried for a second there
        type: 0
        typeString: 
      - title: Sequence
        value: 
        type: 0
        typeString: 
      conversationID: 1
      isRoot: 0
      isGroup: 0
      nodeColor: 
      delaySimStatus: 0
      falseConditionAction: Block
      conditionPriority: 2
      outgoingLinks: []
      conditionsString: 
      userScript: 
      onExecute:
        m_PersistentCalls:
          m_Calls: []
      canvasRect:
        serializedVersion: 2
        x: 552.13385
        y: 992.82434
        width: 160
        height: 30
    - id: 19
      fields:
      - title: Title
        value: 
        type: 0
        typeString: 
      - title: Description
        value: 
        type: 0
        typeString: 
      - title: Actor
        value: 2
        type: 5
        typeString: CustomFieldType_Actor
      - title: Conversant
        value: 1
        type: 5
        typeString: CustomFieldType_Actor
      - title: Menu Text
        value: 
        type: 0
        typeString: 
      - title: Dialogue Text
        value: I suppose I can make all that seem suitably epic
        type: 0
        typeString: 
      - title: Sequence
        value: 
        type: 0
        typeString: 
      conversationID: 1
      isRoot: 0
      isGroup: 0
      nodeColor: 
      delaySimStatus: 0
      falseConditionAction: Block
      conditionPriority: 2
      outgoingLinks: []
      conditionsString: 
      userScript: 
      onExecute:
        m_PersistentCalls:
          m_Calls: []
      canvasRect:
        serializedVersion: 2
        x: 553.62634
        y: 940.5857
        width: 160
        height: 30
    - id: 20
      fields:
      - title: Title
        value: 
        type: 0
        typeString: 
      - title: Description
        value: 
        type: 0
        typeString: 
      - title: Actor
        value: 2
        type: 5
        typeString: CustomFieldType_Actor
      - title: Conversant
        value: 1
        type: 5
        typeString: CustomFieldType_Actor
      - title: Menu Text
        value: 
        type: 0
        typeString: 
      - title: Dialogue Text
        value: Don't worry I'll fix it in editing
        type: 0
        typeString: 
      - title: Sequence
        value: 
        type: 0
        typeString: 
      conversationID: 1
      isRoot: 0
      isGroup: 0
      nodeColor: 
      delaySimStatus: 0
      falseConditionAction: Block
      conditionPriority: 2
      outgoingLinks: []
      conditionsString: 
      userScript: 
      onExecute:
        m_PersistentCalls:
          m_Calls: []
      canvasRect:
        serializedVersion: 2
        x: 553.1842
        y: 886.2008
        width: 160
        height: 30
    - id: 21
      fields:
      - title: Title
        value: 
        type: 0
        typeString: 
      - title: Description
        value: 
        type: 0
        typeString: 
      - title: Actor
        value: 2
        type: 5
        typeString: CustomFieldType_Actor
      - title: Conversant
        value: 1
        type: 5
        typeString: CustomFieldType_Actor
      - title: Menu Text
        value: 
        type: 0
        typeString: 
      - title: Dialogue Text
        value: we're all routing for you, I hope you know that
        type: 0
        typeString: 
      - title: Sequence
        value: 
        type: 0
        typeString: 
      conversationID: 1
      isRoot: 0
      isGroup: 0
      nodeColor: 
      delaySimStatus: 0
      falseConditionAction: Block
      conditionPriority: 2
      outgoingLinks: []
      conditionsString: 
      userScript: 
      onExecute:
        m_PersistentCalls:
          m_Calls: []
      canvasRect:
        serializedVersion: 2
        x: 537.20844
        y: 1224.1676
        width: 160
        height: 30
    - id: 22
      fields:
      - title: Title
        value: 
        type: 0
        typeString: 
      - title: Description
        value: 
        type: 0
        typeString: 
      - title: Actor
        value: 2
        type: 5
        typeString: CustomFieldType_Actor
      - title: Conversant
        value: 1
        type: 5
        typeString: CustomFieldType_Actor
      - title: Menu Text
        value: 
        type: 0
        typeString: 
      - title: Dialogue Text
        value: She's proud of you, I can feel it
        type: 0
        typeString: 
      - title: Sequence
        value: 
        type: 0
        typeString: 
      conversationID: 1
      isRoot: 0
      isGroup: 0
      nodeColor: 
      delaySimStatus: 0
      falseConditionAction: Block
      conditionPriority: 2
      outgoingLinks: []
      conditionsString: 
      userScript: 
      onExecute:
        m_PersistentCalls:
          m_Calls: []
      canvasRect:
        serializedVersion: 2
        x: 538.70105
        y: 1167.4512
        width: 160
        height: 30
    entryGroups: []
    canvasScrollPosition: {x: 327.82593, y: 31.971462}
    canvasZoom: 0.8800001
  - id: 2
    fields:
    - title: Title
      value: Reaspawns
      type: 0
      typeString: 
    - title: Description
      value: 
      type: 0
      typeString: 
    - title: Actor
      value: 1
      type: 5
      typeString: CustomFieldType_Actor
    - title: Conversant
      value: 2
      type: 5
      typeString: CustomFieldType_Actor
    overrideSettings:
      useOverrides: 0
      overrideSubtitleSettings: 0
      showNPCSubtitlesDuringLine: 1
      showNPCSubtitlesWithResponses: 1
      showPCSubtitlesDuringLine: 0
      skipPCSubtitleAfterResponseMenu: 0
      subtitleCharsPerSecond: 30
      minSubtitleSeconds: 2
      continueButton: 0
      overrideSequenceSettings: 0
      defaultSequence: 
      defaultPlayerSequence: 
      defaultResponseMenuSequence: 
      overrideInputSettings: 0
      alwaysForceResponseMenu: 1
      includeInvalidEntries: 0
      responseTimeout: 0
      cancelSubtitle:
        key: 27
        buttonName: 
      cancelConversation:
        key: 27
        buttonName: 
    nodeColor: 
    dialogueEntries:
    - id: 0
      fields:
      - title: Title
        value: START
        type: 0
        typeString: 
      - title: Description
        value: 
        type: 0
        typeString: 
      - title: Actor
        value: 1
        type: 5
        typeString: CustomFieldType_Actor
      - title: Conversant
        value: 2
        type: 5
        typeString: CustomFieldType_Actor
      - title: Menu Text
        value: 
        type: 0
        typeString: 
      - title: Dialogue Text
        value: 
        type: 0
        typeString: 
      - title: Sequence
        value: None()
        type: 0
        typeString: 
      conversationID: 2
      isRoot: 0
      isGroup: 0
      nodeColor: 
      delaySimStatus: 0
      falseConditionAction: Block
      conditionPriority: 2
      outgoingLinks:
      - originConversationID: 2
        originDialogueID: 0
        destinationConversationID: 2
        destinationDialogueID: 1
        isConnector: 0
        priority: 2
      - originConversationID: 2
        originDialogueID: 0
        destinationConversationID: 2
        destinationDialogueID: 2
        isConnector: 0
        priority: 2
      - originConversationID: 2
        originDialogueID: 0
        destinationConversationID: 2
        destinationDialogueID: 3
        isConnector: 0
        priority: 2
      - originConversationID: 2
        originDialogueID: 0
        destinationConversationID: 2
        destinationDialogueID: 4
        isConnector: 0
        priority: 2
      - originConversationID: 2
        originDialogueID: 0
        destinationConversationID: 2
        destinationDialogueID: 5
        isConnector: 0
        priority: 2
      - originConversationID: 2
        originDialogueID: 0
        destinationConversationID: 2
        destinationDialogueID: 6
        isConnector: 0
        priority: 2
      - originConversationID: 2
        originDialogueID: 0
        destinationConversationID: 2
        destinationDialogueID: 7
        isConnector: 0
        priority: 2
      - originConversationID: 2
        originDialogueID: 0
        destinationConversationID: 2
        destinationDialogueID: 8
        isConnector: 0
        priority: 2
      - originConversationID: 2
        originDialogueID: 0
        destinationConversationID: 2
        destinationDialogueID: 9
        isConnector: 0
        priority: 2
      - originConversationID: 2
        originDialogueID: 0
        destinationConversationID: 2
        destinationDialogueID: 10
        isConnector: 0
        priority: 2
      - originConversationID: 2
        originDialogueID: 0
        destinationConversationID: 2
        destinationDialogueID: 11
        isConnector: 0
        priority: 2
      - originConversationID: 2
        originDialogueID: 0
        destinationConversationID: 2
        destinationDialogueID: 12
        isConnector: 0
        priority: 2
      - originConversationID: 2
        originDialogueID: 0
        destinationConversationID: 2
        destinationDialogueID: 13
        isConnector: 0
        priority: 2
      conditionsString: 
      userScript: 
      onExecute:
        m_PersistentCalls:
          m_Calls: []
      canvasRect:
        serializedVersion: 2
        x: 651.3111
        y: 329.83588
        width: 160
        height: 30
    - id: 1
      fields:
      - title: Title
        value: 
        type: 0
        typeString: 
      - title: Description
        value: 
        type: 0
        typeString: 
      - title: Actor
        value: 2
        type: 5
        typeString: CustomFieldType_Actor
      - title: Conversant
        value: 1
        type: 5
        typeString: CustomFieldType_Actor
      - title: Menu Text
        value: 
        type: 0
        typeString: 
      - title: Dialogue Text
        value: No, I refuse to let that be the end
        type: 0
        typeString: 
      - title: Sequence
        value: 
        type: 0
        typeString: 
      conversationID: 2
      isRoot: 0
      isGroup: 0
      nodeColor: 
      delaySimStatus: 0
      falseConditionAction: Block
      conditionPriority: 2
      outgoingLinks: []
      conditionsString: 
      userScript: 
      onExecute:
        m_PersistentCalls:
          m_Calls: []
      canvasRect:
        serializedVersion: 2
        x: 1057.9829
        y: 248.57379
        width: 160
        height: 30
    - id: 2
      fields:
      - title: Title
        value: 
        type: 0
        typeString: 
      - title: Description
        value: 
        type: 0
        typeString: 
      - title: Actor
        value: 2
        type: 5
        typeString: CustomFieldType_Actor
      - title: Conversant
        value: 1
        type: 5
        typeString: CustomFieldType_Actor
      - title: Menu Text
        value: 
        type: 0
        typeString: 
      - title: Dialogue Text
        value: No, I don't think so
        type: 0
        typeString: 
      - title: Sequence
        value: 
        type: 0
        typeString: 
      conversationID: 2
      isRoot: 0
      isGroup: 0
      nodeColor: 
      delaySimStatus: 0
      falseConditionAction: Block
      conditionPriority: 2
      outgoingLinks: []
      conditionsString: 
      userScript: 
      onExecute:
        m_PersistentCalls:
          m_Calls: []
      canvasRect:
        serializedVersion: 2
        x: 1059.1636
        y: 186.22955
        width: 160
        height: 30
    - id: 3
      fields:
      - title: Title
        value: 
        type: 0
        typeString: 
      - title: Description
        value: 
        type: 0
        typeString: 
      - title: Actor
        value: 2
        type: 5
        typeString: CustomFieldType_Actor
      - title: Conversant
        value: 1
        type: 5
        typeString: CustomFieldType_Actor
      - title: Menu Text
        value: 
        type: 0
        typeString: 
      - title: Dialogue Text
        value: That's not how this story ends
        type: 0
        typeString: 
      - title: Sequence
        value: 
        type: 0
        typeString: 
      conversationID: 2
      isRoot: 0
      isGroup: 0
      nodeColor: 
      delaySimStatus: 0
      falseConditionAction: Block
      conditionPriority: 2
      outgoingLinks: []
      conditionsString: 
      userScript: 
      onExecute:
        m_PersistentCalls:
          m_Calls: []
      canvasRect:
        serializedVersion: 2
        x: 1059.7542
        y: 137.27869
        width: 160
        height: 30
    - id: 4
      fields:
      - title: Title
        value: 
        type: 0
        typeString: 
      - title: Description
        value: 
        type: 0
        typeString: 
      - title: Actor
        value: 2
        type: 5
        typeString: CustomFieldType_Actor
      - title: Conversant
        value: 1
        type: 5
        typeString: CustomFieldType_Actor
      - title: Menu Text
        value: 
        type: 0
        typeString: 
      - title: Dialogue Text
        value: Not a good ending I think, lets try that again
        type: 0
        typeString: 
      - title: Sequence
        value: 
        type: 0
        typeString: 
      conversationID: 2
      isRoot: 0
      isGroup: 0
      nodeColor: 
      delaySimStatus: 0
      falseConditionAction: Block
      conditionPriority: 2
      outgoingLinks: []
      conditionsString: 
      userScript: 
      onExecute:
        m_PersistentCalls:
          m_Calls: []
      canvasRect:
        serializedVersion: 2
        x: 1062.7378
        y: 82.73767
        width: 160
        height: 30
    - id: 5
      fields:
      - title: Title
        value: 
        type: 0
        typeString: 
      - title: Description
        value: 
        type: 0
        typeString: 
      - title: Actor
        value: 2
        type: 5
        typeString: CustomFieldType_Actor
      - title: Conversant
        value: 1
        type: 5
        typeString: CustomFieldType_Actor
      - title: Menu Text
        value: 
        type: 0
        typeString: 
      - title: Dialogue Text
        value: AH! you're fine, you're fine!
        type: 0
        typeString: 
      - title: Sequence
        value: 
        type: 0
        typeString: 
      conversationID: 2
      isRoot: 0
      isGroup: 0
      nodeColor: 
      delaySimStatus: 0
      falseConditionAction: Block
      conditionPriority: 2
      outgoingLinks: []
      conditionsString: 
      userScript: 
      onExecute:
        m_PersistentCalls:
          m_Calls: []
      canvasRect:
        serializedVersion: 2
        x: 1061.1469
        y: 686.39307
        width: 160
        height: 30
    - id: 6
      fields:
      - title: Title
        value: 
        type: 0
        typeString: 
      - title: Description
        value: 
        type: 0
        typeString: 
      - title: Actor
        value: 2
        type: 5
        typeString: CustomFieldType_Actor
      - title: Conversant
        value: 1
        type: 5
        typeString: CustomFieldType_Actor
      - title: Menu Text
        value: 
        type: 0
        typeString: 
      - title: Dialogue Text
        value: Anyone else would tell you to avoid that kind of situation
        type: 0
        typeString: 
      - title: Sequence
        value: 
        type: 0
        typeString: 
      conversationID: 2
      isRoot: 0
      isGroup: 0
      nodeColor: 
      delaySimStatus: 0
      falseConditionAction: Block
      conditionPriority: 2
      outgoingLinks: []
      conditionsString: 
      userScript: 
      onExecute:
        m_PersistentCalls:
          m_Calls: []
      canvasRect:
        serializedVersion: 2
        x: 1056.2289
        y: 624.098
        width: 160
        height: 30
    - id: 7
      fields:
      - title: Title
        value: 
        type: 0
        typeString: 
      - title: Description
        value: 
        type: 0
        typeString: 
      - title: Actor
        value: 2
        type: 5
        typeString: CustomFieldType_Actor
      - title: Conversant
        value: 1
        type: 5
        typeString: CustomFieldType_Actor
      - title: Menu Text
        value: 
        type: 0
        typeString: 
      - title: Dialogue Text
        value: Sorry that ending will simply not stand
        type: 0
        typeString: 
      - title: Sequence
        value: 
        type: 0
        typeString: 
      conversationID: 2
      isRoot: 0
      isGroup: 0
      nodeColor: 
      delaySimStatus: 0
      falseConditionAction: Block
      conditionPriority: 2
      outgoingLinks: []
      conditionsString: 
      userScript: 
      onExecute:
        m_PersistentCalls:
          m_Calls: []
      canvasRect:
        serializedVersion: 2
        x: 1046.3928
        y: 550.3276
        width: 160
        height: 30
    - id: 8
      fields:
      - title: Title
        value: 
        type: 0
        typeString: 
      - title: Description
        value: 
        type: 0
        typeString: 
      - title: Actor
        value: 2
        type: 5
        typeString: CustomFieldType_Actor
      - title: Conversant
        value: 1
        type: 5
        typeString: CustomFieldType_Actor
      - title: Menu Text
        value: 
        type: 0
        typeString: 
      - title: Dialogue Text
        value: 
        type: 0
        typeString: 
      - title: Sequence
        value: 
        type: 0
        typeString: 
      conversationID: 2
      isRoot: 0
      isGroup: 0
      nodeColor: 
      delaySimStatus: 0
      falseConditionAction: Block
      conditionPriority: 2
      outgoingLinks: []
      conditionsString: 
      userScript: 
      onExecute:
        m_PersistentCalls:
          m_Calls: []
      canvasRect:
        serializedVersion: 2
        x: 1061.1469
        y: 486.3932
        width: 160
        height: 30
    - id: 9
      fields:
      - title: Title
        value: 
        type: 0
        typeString: 
      - title: Description
        value: 
        type: 0
        typeString: 
      - title: Actor
        value: 2
        type: 5
        typeString: CustomFieldType_Actor
      - title: Conversant
        value: 1
        type: 5
        typeString: CustomFieldType_Actor
      - title: Menu Text
        value: 
        type: 0
        typeString: 
      - title: Dialogue Text
        value: In my telling you win that fight, so......
        type: 0
        typeString: 
      - title: Sequence
        value: 
        type: 0
        typeString: 
      conversationID: 2
      isRoot: 0
      isGroup: 0
      nodeColor: 
      delaySimStatus: 0
      falseConditionAction: Block
      conditionPriority: 2
      outgoingLinks: []
      conditionsString: 
      userScript: 
      onExecute:
        m_PersistentCalls:
          m_Calls: []
      canvasRect:
        serializedVersion: 2
        x: 1044.7534
        y: 417.54077
        width: 160
        height: 30
    - id: 10
      fields:
      - title: Title
        value: 
        type: 0
        typeString: 
      - title: Description
        value: 
        type: 0
        typeString: 
      - title: Actor
        value: 2
        type: 5
        typeString: CustomFieldType_Actor
      - title: Conversant
        value: 1
        type: 5
        typeString: CustomFieldType_Actor
      - title: Menu Text
        value: 
        type: 0
        typeString: 
      - title: Dialogue Text
        value: I didn't write it, so it didn't happen
        type: 0
        typeString: 
      - title: Sequence
        value: 
        type: 0
        typeString: 
      conversationID: 2
      isRoot: 0
      isGroup: 0
      nodeColor: 
      delaySimStatus: 0
      falseConditionAction: Block
      conditionPriority: 2
      outgoingLinks: []
      conditionsString: 
      userScript: 
      onExecute:
        m_PersistentCalls:
          m_Calls: []
      canvasRect:
        serializedVersion: 2
        x: 1052.9502
        y: 363.44244
        width: 160
        height: 30
    - id: 11
      fields:
      - title: Title
        value: 
        type: 0
        typeString: 
      - title: Description
        value: 
        type: 0
        typeString: 
      - title: Actor
        value: 2
        type: 5
        typeString: CustomFieldType_Actor
      - title: Conversant
        value: 1
        type: 5
        typeString: CustomFieldType_Actor
      - title: Menu Text
        value: 
        type: 0
        typeString: 
      - title: Dialogue Text
        value: I'm just going to omit that last part
        type: 0
        typeString: 
      - title: Sequence
        value: 
        type: 0
        typeString: 
      conversationID: 2
      isRoot: 0
      isGroup: 0
      nodeColor: 
      delaySimStatus: 0
      falseConditionAction: Block
      conditionPriority: 2
      outgoingLinks: []
      conditionsString: 
      userScript: 
      onExecute:
        m_PersistentCalls:
          m_Calls: []
      canvasRect:
        serializedVersion: 2
        x: 1056.2289
        y: 306.06543
        width: 160
        height: 30
    - id: 12
      fields:
      - title: Title
        value: 
        type: 0
        typeString: 
      - title: Description
        value: 
        type: 0
        typeString: 
      - title: Actor
        value: 2
        type: 5
        typeString: CustomFieldType_Actor
      - title: Conversant
        value: 1
        type: 5
        typeString: CustomFieldType_Actor
      - title: Menu Text
        value: 
        type: 0
        typeString: 
      - title: Dialogue Text
        value: You know there are easier way to see me, right?
        type: 0
        typeString: 
      - title: Sequence
        value: 
        type: 0
        typeString: 
      conversationID: 2
      isRoot: 0
      isGroup: 0
      nodeColor: 
      delaySimStatus: 0
      falseConditionAction: Block
      conditionPriority: 2
      outgoingLinks: []
      conditionsString: 
      userScript: 
      onExecute:
        m_PersistentCalls:
          m_Calls: []
      canvasRect:
        serializedVersion: 2
        x: 1061.1469
        y: 796.22906
        width: 160
        height: 30
    - id: 13
      fields:
      - title: Title
        value: 
        type: 0
        typeString: 
      - title: Description
        value: 
        type: 0
        typeString: 
      - title: Actor
        value: 2
        type: 5
        typeString: CustomFieldType_Actor
      - title: Conversant
        value: 1
        type: 5
        typeString: CustomFieldType_Actor
      - title: Menu Text
        value: 
        type: 0
        typeString: 
      - title: Dialogue Text
        value: Winnie? Are you ok now?
        type: 0
        typeString: 
      - title: Sequence
        value: 
        type: 0
        typeString: 
      conversationID: 2
      isRoot: 0
      isGroup: 0
      nodeColor: 
      delaySimStatus: 0
      falseConditionAction: Block
      conditionPriority: 2
      outgoingLinks: []
      conditionsString: 
      userScript: 
      onExecute:
        m_PersistentCalls:
          m_Calls: []
      canvasRect:
        serializedVersion: 2
        x: 1061.1469
        y: 747.04877
        width: 160
        height: 30
    entryGroups: []
    canvasScrollPosition: {x: 0, y: 0}
    canvasZoom: 0.5800004
  syncInfo:
    syncActors: 0
    syncItems: 0
    syncLocations: 0
    syncVariables: 0
    syncActorsDatabase: {fileID: 0}
    syncItemsDatabase: {fileID: 0}
    syncLocationsDatabase: {fileID: 0}
    syncVariablesDatabase: {fileID: 0}
  templateJson: '{"treatItemsAsQuests":true,"actorFields":[{"title":"Name","value":"","type":0,"typeString":""},{"title":"Pictures","value":"[]","type":3,"typeString":"CustomFieldType_Files"},{"title":"Description","value":"","type":0,"typeString":""},{"title":"IsPlayer","value":"False","type":2,"typeString":"CustomFieldType_Boolean"}],"itemFields":[{"title":"Name","value":"","type":0,"typeString":""},{"title":"Pictures","value":"[]","type":3,"typeString":"CustomFieldType_Files"},{"title":"Description","value":"","type":0,"typeString":""},{"title":"Is
    Item","value":"True","type":2,"typeString":"CustomFieldType_Boolean"}],"questFields":[{"title":"Name","value":"","type":0,"typeString":""},{"title":"Pictures","value":"[]","type":3,"typeString":"CustomFieldType_Files"},{"title":"Description","value":"","type":0,"typeString":""},{"title":"Success
    Description","value":"","type":0,"typeString":""},{"title":"Failure Description","value":"","type":0,"typeString":""},{"title":"State","value":"unassigned","type":0,"typeString":""},{"title":"Is
    Item","value":"False","type":2,"typeString":"CustomFieldType_Boolean"}],"locationFields":[{"title":"Name","value":"","type":0,"typeString":""},{"title":"Description","value":"","type":0,"typeString":""}],"variableFields":[{"title":"Name","value":"","type":0,"typeString":""},{"title":"Initial
    Value","value":"","type":0,"typeString":""},{"title":"Description","value":"","type":0,"typeString":""}],"conversationFields":[{"title":"Title","value":"","type":0,"typeString":""},{"title":"Description","value":"","type":0,"typeString":""},{"title":"Actor","value":"0","type":5,"typeString":"CustomFieldType_Actor"},{"title":"Conversant","value":"0","type":5,"typeString":"CustomFieldType_Actor"}],"dialogueEntryFields":[{"title":"Title","value":"","type":0,"typeString":""},{"title":"Description","value":"","type":0,"typeString":""},{"title":"Actor","value":"","type":5,"typeString":"CustomFieldType_Actor"},{"title":"Conversant","value":"","type":5,"typeString":"CustomFieldType_Actor"},{"title":"Menu
    Text","value":"","type":0,"typeString":""},{"title":"Dialogue Text","value":"","type":0,"typeString":""},{"title":"Sequence","value":"","type":0,"typeString":""}],"actorPrimaryFieldTitles":[],"itemPrimaryFieldTitles":[],"questPrimaryFieldTitles":[],"locationPrimaryFieldTitles":[],"variablePrimaryFieldTitles":[],"conversationPrimaryFieldTitles":[],"dialogueEntryPrimaryFieldTitles":[],"npcLineColor":{"r":1.0,"g":0.0,"b":0.0,"a":1.0},"pcLineColor":{"r":0.0,"g":0.0,"b":1.0,"a":1.0},"repeatLineColor":{"r":0.5,"g":0.5,"b":0.5,"a":1.0}}'
