%YAML 1.1
%TAG !u! tag:unity3d.com,2011:
--- !u!1001 &5033096942319435622
PrefabInstance:
  m_ObjectHideFlags: 0
  serializedVersion: 2
  m_Modification:
    m_TransformParent: {fileID: 0}
    m_Modifications:
    - target: {fileID: 2100512710598364097, guid: 00c6d72d87af65245b3bc6583acd620c, type: 3}
      propertyPath: _animator
      value: 
      objectReference: {fileID: 0}
    - target: {fileID: 5352133234258200556, guid: 00c6d72d87af65245b3bc6583acd620c, type: 3}
      propertyPath: m_Name
      value: Bard (3) Variant
      objectReference: {fileID: 0}
    - target: {fileID: 5745587693683214740, guid: 00c6d72d87af65245b3bc6583acd620c, type: 3}
      propertyPath: m_RootOrder
      value: 0
      objectReference: {fileID: 0}
    - target: {fileID: 5745587693683214740, guid: 00c6d72d87af65245b3bc6583acd620c, type: 3}
      propertyPath: m_LocalPosition.x
      value: 68.8
      objectReference: {fileID: 0}
    - target: {fileID: 5745587693683214740, guid: 00c6d72d87af65245b3bc6583acd620c, type: 3}
      propertyPath: m_LocalPosition.y
      value: -37.8
      objectReference: {fileID: 0}
    - target: {fileID: 5745587693683214740, guid: 00c6d72d87af65245b3bc6583acd620c, type: 3}
      propertyPath: m_LocalPosition.z
      value: 0
      objectReference: {fileID: 0}
    - target: {fileID: 5745587693683214740, guid: 00c6d72d87af65245b3bc6583acd620c, type: 3}
      propertyPath: m_LocalRotation.w
      value: 1
      objectReference: {fileID: 0}
    - target: {fileID: 5745587693683214740, guid: 00c6d72d87af65245b3bc6583acd620c, type: 3}
      propertyPath: m_LocalRotation.x
      value: -0
      objectReference: {fileID: 0}
    - target: {fileID: 5745587693683214740, guid: 00c6d72d87af65245b3bc6583acd620c, type: 3}
      propertyPath: m_LocalRotation.y
      value: -0
      objectReference: {fileID: 0}
    - target: {fileID: 5745587693683214740, guid: 00c6d72d87af65245b3bc6583acd620c, type: 3}
      propertyPath: m_LocalRotation.z
      value: -0
      objectReference: {fileID: 0}
    - target: {fileID: 5745587693683214740, guid: 00c6d72d87af65245b3bc6583acd620c, type: 3}
      propertyPath: m_LocalEulerAnglesHint.x
      value: 0
      objectReference: {fileID: 0}
    - target: {fileID: 5745587693683214740, guid: 00c6d72d87af65245b3bc6583acd620c, type: 3}
      propertyPath: m_LocalEulerAnglesHint.y
      value: 0
      objectReference: {fileID: 0}
    - target: {fileID: 5745587693683214740, guid: 00c6d72d87af65245b3bc6583acd620c, type: 3}
      propertyPath: m_LocalEulerAnglesHint.z
      value: 0
      objectReference: {fileID: 0}
    m_RemovedComponents: []
  m_SourcePrefab: {fileID: 100100000, guid: 00c6d72d87af65245b3bc6583acd620c, type: 3}
