%YAML 1.1
%TAG !u! tag:unity3d.com,2011:
--- !u!162 &1
EditorUserSettings:
  m_ObjectHideFlags: 0
  serializedVersion: 4
  m_ConfigSettings:
    RecentlyUsedScenePath-0:
      value: 22424703114646680e0b0227036c79191816146a1f2b233e283a521fede13031ece005eae2343a722c0ce6281d
      flags: 0
    RecentlyUsedScenePath-1:
      value: 22424703114646680e0b0227036c6f11040311292d2412353e3d2e30e7ee3176f7e93ffdfe
      flags: 0
    RecentlyUsedScenePath-2:
      value: 224247031146467e151a09301e22533105041d3e3f6703362b2c1e27c7f83535f2eb33faa8093c393707fc73293b0f2abc1f0702e212
      flags: 0
    RecentlyUsedScenePath-3:
      value: 22424703114646680e0b0227036c79191816146a1f2b233e283a5209edee312baddd39e7e26f7129370bfb25
      flags: 0
    RecentlyUsedScenePath-4:
      value: 22424703114646680e0b0227036c79191816146a1f2b233e283a5209edee312baddd39e7e2627129370bfb25
      flags: 0
    RecentlyUsedScenePath-5:
      value: 22424703114646680e0b0227036c79191816146a1f2b233e283a5209edee312baddd39e7e26972687717e1351027
      flags: 0
    RecentlyUsedScenePath-6:
      value: 22424703114646680e0b0227036c79191816146a1f2b233e283a5209edee312baddd39e7e26c726b7717e1351027
      flags: 0
    RecentlyUsedScenePath-7:
      value: 22424703114646680e0b0227036c79191816146a1f2b233e283a5215ebee3534c0e825faa92f31352d1b
      flags: 0
    RecentlyUsedScenePath-8:
      value: 22424703114646680e0b0227036c79191816146a1f2b233e283a521ee7ee2176f7e93ffdfe
      flags: 0
    RecentlyUsedScenePath-9:
      value: 22424703114646680e0b0227036c79191816146a1f2b233e283a5209edee312baddd39e7e26b726e7717e1351027
      flags: 0
    vcSharedLogLevel:
      value: 0d5e400f0650
      flags: 0
  m_VCAutomaticAdd: 1
  m_VCDebugCom: 0
  m_VCDebugCmd: 0
  m_VCDebugOut: 0
  m_SemanticMergeMode: 2
  m_VCShowFailedCheckout: 1
  m_VCOverwriteFailedCheckoutAssets: 1
  m_VCProjectOverlayIcons: 1
  m_VCHierarchyOverlayIcons: 1
  m_VCOtherOverlayIcons: 1
  m_VCAllowAsyncUpdate: 1
