%YAML 1.1
%TAG !u! tag:unity3d.com,2011:
--- !u!114 &11400000
MonoBehaviour:
  m_ObjectHideFlags: 0
  m_CorrespondingSourceObject: {fileID: 0}
  m_PrefabInstance: {fileID: 0}
  m_PrefabAsset: {fileID: 0}
  m_GameObject: {fileID: 0}
  m_Enabled: 1
  m_EditorHideFlags: 0
  m_Script: {fileID: 11500000, guid: 3cfe511f5ae84c24e82fbf88db7e24ae, type: 3}
  m_Name: LavaMat
  m_EditorClassIdentifier: 
  _fillMaterial: {fileID: 2100000, guid: 9b5681efa9a578845b7a7f05fe5541bd, type: 2}
  _edgeMaterial: {fileID: 2100000, guid: 3cce6b98628d0534894127212642f127, type: 2}
  _descriptors:
  - _applyTo: 0
    _zOffset: 0
    _yOffset: 0
    _capOffset: 0
    _legacyLeftCap:
      serializedVersion: 2
      x: 0
      y: 0
      width: 0
      height: 0
    _leftCaps:
    - serializedVersion: 2
      x: 0.5008574
      y: 0.5751953
      width: 0.21269307
      height: 0.15039062
    _leftCapWeights: []
    _leftCapColliderSize:
    - 1
    _leftCapColliderType: 02000000
    _leftCapOffset:
    - -0.07
    _legacyInnerLeftCap:
      serializedVersion: 2
      x: 0
      y: 0
      width: 0
      height: 0
    _innerLeftCaps:
    - serializedVersion: 2
      x: 0.07204114
      y: 0.57128906
      width: 0.08576332
      height: 0.048828125
    _innerLeftCapWeights: []
    _innerLeftCapColliderSize:
    - 1
    _innerLeftCapColliderType: 02000000
    _innerLeftCapOffset:
    - 0
    _legacyRightCap:
      serializedVersion: 2
      x: 0
      y: 0
      width: 0
      height: 0
    _rightCaps:
    - serializedVersion: 2
      x: 0.29331052
      y: 0.5751953
      width: 0.20411669
      height: 0.15039062
    _rightCapWeights: []
    _rightCapColliderSize:
    - 1
    _rightCapColliderType: 02000000
    _rightCapOffset:
    - 0.07
    _legacyInnerRightCap:
      serializedVersion: 2
      x: 0
      y: 0
      width: 0
      height: 0
    _innerRightCaps: []
    _innerRightCapWeights: []
    _innerRightCapColliderSize:
    - 1
    _innerRightCapColliderType: 02000000
    _innerRightCapOffset:
    - 0
    _bodies:
    - serializedVersion: 2
      x: 0
      y: 0
      width: 1
      height: 0.12445746
    _bodyWeights: []
    _yOffsetPercent: 0.48
    _colliderOffset: 0
    _colliderThickness: 1
    _physicsMaterial2D: {fileID: 0}
    _physicsMaterial3D: {fileID: 0}
  - _applyTo: 1
    _zOffset: 0.002
    _yOffset: 0
    _capOffset: 0
    _legacyLeftCap:
      serializedVersion: 2
      x: 0
      y: 0
      width: 0
      height: 0
    _leftCaps:
    - serializedVersion: 2
      x: 0
      y: 0.46191406
      width: 0
      height: 0
    _leftCapWeights: []
    _leftCapColliderSize:
    - 1
    _leftCapColliderType: 00000000
    _leftCapOffset:
    - 0.02
    _legacyInnerLeftCap:
      serializedVersion: 2
      x: 0
      y: 0
      width: 0
      height: 0
    _innerLeftCaps: []
    _innerLeftCapWeights: []
    _innerLeftCapColliderSize:
    - 1
    _innerLeftCapColliderType: 00000000
    _innerLeftCapOffset:
    - 0.02
    _legacyRightCap:
      serializedVersion: 2
      x: 0
      y: 0
      width: 0
      height: 0
    _rightCaps:
    - serializedVersion: 2
      x: 1
      y: 0.46191406
      width: 0
      height: 0
    _rightCapWeights: []
    _rightCapColliderSize:
    - 1
    _rightCapColliderType: 00000000
    _rightCapOffset:
    - 0.02
    _legacyInnerRightCap:
      serializedVersion: 2
      x: 0
      y: 0
      width: 0
      height: 0
    _innerRightCaps: []
    _innerRightCapWeights: []
    _innerRightCapColliderSize:
    - 1
    _innerRightCapColliderType: 00000000
    _innerRightCapOffset:
    - 0.02
    _bodies:
    - serializedVersion: 2
      x: 0
      y: 0.46191406
      width: 1
      height: 0.0873481
    _bodyWeights: []
    _yOffsetPercent: 0.48
    _colliderOffset: 0
    _colliderThickness: 1
    _physicsMaterial2D: {fileID: 0}
    _physicsMaterial3D: {fileID: 0}
  - _applyTo: 2
    _zOffset: 0.002
    _yOffset: 0
    _capOffset: 0
    _legacyLeftCap:
      serializedVersion: 2
      x: 0
      y: 0
      width: 0
      height: 0
    _leftCaps:
    - serializedVersion: 2
      x: 0
      y: 0.32128906
      width: 0
      height: 0
    _leftCapWeights: []
    _leftCapColliderSize:
    - 1
    _leftCapColliderType: 00000000
    _leftCapOffset:
    - 0.02
    _legacyInnerLeftCap:
      serializedVersion: 2
      x: 0
      y: 0
      width: 0
      height: 0
    _innerLeftCaps: []
    _innerLeftCapWeights: []
    _innerLeftCapColliderSize:
    - 1
    _innerLeftCapColliderType: 00000000
    _innerLeftCapOffset:
    - 0.02
    _legacyRightCap:
      serializedVersion: 2
      x: 0
      y: 0
      width: 0
      height: 0
    _rightCaps:
    - serializedVersion: 2
      x: 1
      y: 0.32128906
      width: 0
      height: 0
    _rightCapWeights: []
    _rightCapColliderSize:
    - 1
    _rightCapColliderType: 00000000
    _rightCapOffset:
    - 0.02
    _legacyInnerRightCap:
      serializedVersion: 2
      x: 0
      y: 0
      width: 0
      height: 0
    _innerRightCaps: []
    _innerRightCapWeights: []
    _innerRightCapColliderSize:
    - 1
    _innerRightCapColliderType: 00000000
    _innerRightCapOffset:
    - 0.02
    _bodies:
    - serializedVersion: 2
      x: 0
      y: 0.32128906
      width: 1
      height: 0.08539498
    _bodyWeights: []
    _yOffsetPercent: 0.48
    _colliderOffset: 0
    _colliderThickness: 1
    _physicsMaterial2D: {fileID: 0}
    _physicsMaterial3D: {fileID: 0}
  - _applyTo: 3
    _zOffset: 0.001
    _yOffset: 0
    _capOffset: 0
    _legacyLeftCap:
      serializedVersion: 2
      x: 0
      y: 0
      width: 0
      height: 0
    _leftCaps:
    - serializedVersion: 2
      x: 0.0017152659
      y: 0.1796875
      width: 0
      height: 0
    _leftCapWeights: []
    _leftCapColliderSize:
    - 1
    _leftCapColliderType: 02000000
    _leftCapOffset:
    - 0.74
    _legacyInnerLeftCap:
      serializedVersion: 2
      x: 0
      y: 0
      width: 0
      height: 0
    _innerLeftCaps: []
    _innerLeftCapWeights: []
    _innerLeftCapColliderSize:
    - 1
    _innerLeftCapColliderType: 02000000
    _innerLeftCapOffset:
    - 0.74
    _legacyRightCap:
      serializedVersion: 2
      x: 0
      y: 0
      width: 0
      height: 0
    _rightCaps:
    - serializedVersion: 2
      x: 1
      y: 0.1796875
      width: 0
      height: 0
    _rightCapWeights: []
    _rightCapColliderSize:
    - 1
    _rightCapColliderType: 02000000
    _rightCapOffset:
    - 0.74
    _legacyInnerRightCap:
      serializedVersion: 2
      x: 0
      y: 0
      width: 0
      height: 0
    _innerRightCaps: []
    _innerRightCapWeights: []
    _innerRightCapColliderSize:
    - 1
    _innerRightCapColliderType: 02000000
    _innerRightCapOffset:
    - 0.74
    _bodies:
    - serializedVersion: 2
      x: 0.0017152659
      y: 0.1796875
      width: 0.99828476
      height: 0.08637154
    _bodyWeights: []
    _yOffsetPercent: 0.48
    _colliderOffset: 0
    _colliderThickness: 1
    _physicsMaterial2D: {fileID: 0}
    _physicsMaterial3D: {fileID: 0}
  isPixel: 0
  _isPerfect: 0
